{
	"photos": {
		"page": 1,
		"pages": 2546,
		"perpage": 100,
		"total": "254592",
		"photo": [{
			"id": "46974199365",
			"owner": "147909727@N03",
			"secret": "f337eb368a",
			"server": "65535",
			"farm": 66,
			"title": "Daily Vocal Resonance Exercises For Singers",
			"ispublic": 1,
			"isfriend": 0,
			"isfamily": 0
		}, {
			"id": "46973930895",
			"owner": "170155087@N08",
			"secret": "5544f4ce81",
			"server": "65535",
			"farm": 66,
			"title": "iCloud'u a\u00e7\u0131lmayan Telefonlar\u0131n\u0131z\u0131 De\u011ferinde Al\u0131yoruz. . . . . . #apple #iphone #macbook #macbookpro #macbookair # #iphoneservis #iphoneteknikservis #gaziantepiphone #pupa #bataryade\u011fi\u015fimi #iphonebatarya #iphoneekran #iphoneekrande\u011fi\u015fimi",
			"ispublic": 1,
			"isfriend": 0,
			"isfamily": 0
		}, {
			"id": "47837998552",
			"owner": "90865052@N00",
			"secret": "c34763166a",
			"server": "65535",
			"farm": 66,
			"title": "Audience in Derry Guildhall before Handel's Messiah by Altnagelvin Hospital Choir",
			"ispublic": 1,
			"isfriend": 0,
			"isfamily": 0
		}, {
			"id": "40923613483",
			"owner": "90865052@N00",
			"secret": "5cda7b1a53",
			"server": "65535",
			"farm": 66,
			"title": "Derry Guildhall before rehearsal for Handel's Messiah with Altnagelvin Hospital Choir",
			"ispublic": 1,
			"isfriend": 0,
			"isfamily": 0
		}, {
			"id": "47837877402",
			"owner": "38017226@N05",
			"secret": "c11ca416eb",
			"server": "65535",
			"farm": 66,
			"title": "The port light is always behind the wire mesh.",
			"ispublic": 1,
			"isfriend": 0,
			"isfamily": 0
		}, {
			"id": "47889768501",
			"owner": "152971940@N03",
			"secret": "c635df4cdf",
			"server": "65535",
			"farm": 66,
			"title": "PROWISE SERRAPEPTASE 90 Capsules 80,000 IU Manufactured in The UK to GMP Code of Practice Buy at: https:\/\/amzn.to\/2VDmjfM #prowisehealthcare #serrapeptase #healthylifestyle #healthy #healthyfood #health #goodlife #life #lifestyle",
			"ispublic": 1,
			"isfriend": 0,
			"isfamily": 0
		}, {
			"id": "47889728641",
			"owner": "157770203@N05",
			"secret": "6f1dd50532",
			"server": "65535",
			"farm": 66,
			"title": "Make Your College Life Flawless By Adding Coolest MacBook Pro",
			"ispublic": 1,
			"isfriend": 0,
			"isfamily": 0
		}, {
			"id": "46973634105",
			"owner": "165840844@N04",
			"secret": "1221529ef3",
			"server": "65535",
			"farm": 66,
			"title": "Car Services in Melbourne",
			"ispublic": 1,
			"isfriend": 0,
			"isfamily": 0
		}, {
			"id": "47837780212",
			"owner": "165840844@N04",
			"secret": "cdcf6863d0",
			"server": "65535",
			"farm": 66,
			"title": "Car Repair in Melbourne",
			"ispublic": 1,
			"isfriend": 0,
			"isfamily": 0
		}, {
			"id": "47889687991",
			"owner": "125167502@N02",
			"secret": "a47bf16984",
			"server": "65535",
			"farm": 66,
			"title": "Knottnkino V\u00f6ran, Alps South Tyrol",
			"ispublic": 1,
			"isfriend": 0,
			"isfamily": 0
		}, {
			"id": "47100306764",
			"owner": "162098846@N03",
			"secret": "95723e3b4b",
			"server": "65535",
			"farm": 66,
			"title": "Living Room 02",
			"ispublic": 1,
			"isfriend": 0,
			"isfamily": 0
		}, {
			"id": "47889521551",
			"owner": "168574613@N02",
			"secret": "aff7db4097",
			"server": "0",
			"farm": 0,
			"title": "Fiber Rich Foods For Good Health | Mark McCool Sarasota",
			"ispublic": 1,
			"isfriend": 0,
			"isfamily": 0
		}, {
			"id": "47889504561",
			"owner": "168574613@N02",
			"secret": "a635466978",
			"server": "0",
			"farm": 0,
			"title": "Fiber Rich Foods For Good Health | Mark McCool Sarasota",
			"ispublic": 1,
			"isfriend": 0,
			"isfamily": 0
		}, {
			"id": "46973250045",
			"owner": "169099594@N04",
			"secret": "2eb9468e4c",
			"server": "65535",
			"farm": 66,
			"title": "Apple Dimension",
			"ispublic": 1,
			"isfriend": 0,
			"isfamily": 0
		}, {
			"id": "47100177374",
			"owner": "99307449@N08",
			"secret": "f3ef872af7",
			"server": "65535",
			"farm": 66,
			"title": "Global Art Apple, Pen and Pineapple",
			"ispublic": 1,
			"isfriend": 0,
			"isfamily": 0
		}, {
			"id": "47100125594",
			"owner": "80454089@N00",
			"secret": "925634660e",
			"server": "65535",
			"farm": 66,
			"title": "Dusty Tucson's Moon Appears Very Close To Full",
			"ispublic": 1,
			"isfriend": 0,
			"isfamily": 0
		}, {
			"id": "23005132110",
			"owner": "21142952@N04",
			"secret": "36c37afd9d",
			"server": "5657",
			"farm": 6,
			"title": "Carl in New York \"Apple Store\" (1154x anges.)",
			"ispublic": 1,
			"isfriend": 0,
			"isfamily": 0
		}, {
			"id": "5372075701",
			"owner": "21142952@N04",
			"secret": "5f40e03ce7",
			"server": "65535",
			"farm": 66,
			"title": "Neuer iMAC 27 Zoll Baujahr 2019 (Sch\u00f6nes Biest!) 38.657x anges.",
			"ispublic": 1,
			"isfriend": 0,
			"isfamily": 0
		}, {
			"id": "47837441192",
			"owner": "162989883@N06",
			"secret": "94fbe546eb",
			"server": "65535",
			"farm": 66,
			"title": "136\/365 Granny Smith Apples",
			"ispublic": 1,
			"isfriend": 0,
			"isfamily": 0
		}, {
			"id": "47100015614",
			"owner": "14704393@N07",
			"secret": "1a82955f71",
			"server": "65535",
			"farm": 66,
			"title": "apples",
			"ispublic": 1,
			"isfriend": 0,
			"isfamily": 0
		}, {
			"id": "47099990774",
			"owner": "165386180@N04",
			"secret": "648a32ed0f",
			"server": "65535",
			"farm": 66,
			"title": "Plastic Attack: An Effective Initiative To Combat Overpack",
			"ispublic": 1,
			"isfriend": 0,
			"isfamily": 0
		}, {
			"id": "47837344992",
			"owner": "90865052@N00",
			"secret": "7745124c7f",
			"server": "65535",
			"farm": 66,
			"title": "Belfast Tesco Metro on Monday 20th May 2019, the first day of reopening since Bank Buildings Fire of Tuesday 28th August 2018",
			"ispublic": 1,
			"isfriend": 0,
			"isfamily": 0
		}, {
			"id": "47837345062",
			"owner": "90865052@N00",
			"secret": "d66d5f47cb",
			"server": "65535",
			"farm": 66,
			"title": "Belfast Tesco Metro on Monday 20th May 2019, the first day of reopening since Bank Buildings Fire of Tuesday 28th August 2018",
			"ispublic": 1,
			"isfriend": 0,
			"isfamily": 0
		}, {
			"id": "46973200795",
			"owner": "90865052@N00",
			"secret": "d0d3165925",
			"server": "65535",
			"farm": 66,
			"title": "Belfast Tesco Metro on Monday 20th May 2019, the first day of reopening since Bank Buildings Fire of Tuesday 28th August 2018",
			"ispublic": 1,
			"isfriend": 0,
			"isfamily": 0
		}, {
			"id": "47099963594",
			"owner": "90865052@N00",
			"secret": "a59c3e4da1",
			"server": "65535",
			"farm": 66,
			"title": "Belfast Tesco Metro on Monday 20th May 2019, the first day of reopening since Bank Buildings Fire of Tuesday 28th August 2018",
			"ispublic": 1,
			"isfriend": 0,
			"isfamily": 0
		}, {
			"id": "47837344702",
			"owner": "90865052@N00",
			"secret": "a476437623",
			"server": "65535",
			"farm": 66,
			"title": "Belfast Tesco Metro on Monday 20th May 2019, the first day of reopening since Bank Buildings Fire of Tuesday 28th August 2018",
			"ispublic": 1,
			"isfriend": 0,
			"isfamily": 0
		}, {
			"id": "46973200645",
			"owner": "90865052@N00",
			"secret": "aa0ef3ab97",
			"server": "65535",
			"farm": 66,
			"title": "Belfast Tesco Metro on Monday 20th May 2019, the first day of reopening since Bank Buildings Fire of Tuesday 28th August 2018",
			"ispublic": 1,
			"isfriend": 0,
			"isfamily": 0
		}, {
			"id": "47099962964",
			"owner": "90865052@N00",
			"secret": "ce2958eccf",
			"server": "65535",
			"farm": 66,
			"title": "Belfast Tesco Metro on Monday 20th May 2019, the first day of reopening since Bank Buildings Fire of Tuesday 28th August 2018",
			"ispublic": 1,
			"isfriend": 0,
			"isfamily": 0
		}, {
			"id": "46973200305",
			"owner": "90865052@N00",
			"secret": "56f34c46b4",
			"server": "65535",
			"farm": 66,
			"title": "Belfast Tesco Metro on Monday 20th May 2019, the first day of reopening since Bank Buildings Fire of Tuesday 28th August 2018",
			"ispublic": 1,
			"isfriend": 0,
			"isfamily": 0
		}, {
			"id": "47837339942",
			"owner": "90865052@N00",
			"secret": "4344866219",
			"server": "65535",
			"farm": 66,
			"title": "Belfast Tesco Metro on Monday 20th May 2019, the first day of reopening since Bank Buildings Fire of Tuesday 28th August 2018",
			"ispublic": 1,
			"isfriend": 0,
			"isfamily": 0
		}, {
			"id": "47099959694",
			"owner": "90865052@N00",
			"secret": "683a404080",
			"server": "65535",
			"farm": 66,
			"title": "Altnagelvin Hospital Choir, Soloists and Orchestra gathering in Council Chamber of Derry Guildhall before Handel's Messiah",
			"ispublic": 1,
			"isfriend": 0,
			"isfamily": 0
		}, {
			"id": "47889263851",
			"owner": "90865052@N00",
			"secret": "3484d0de33",
			"server": "65535",
			"farm": 66,
			"title": "Altnagelvin Hospital Choir, Soloists and Orchestra gathering in Council Chamber of Derry Guildhall before Handel's Messiah",
			"ispublic": 1,
			"isfriend": 0,
			"isfamily": 0
		}, {
			"id": "40922956603",
			"owner": "90865052@N00",
			"secret": "d195537070",
			"server": "65535",
			"farm": 66,
			"title": "Altnagelvin Hospital Choir, Soloists and Orchestra gathering in Council Chamber of Derry Guildhall before Handel's Messiah",
			"ispublic": 1,
			"isfriend": 0,
			"isfamily": 0
		}, {
			"id": "40922956403",
			"owner": "90865052@N00",
			"secret": "dc69d9e02a",
			"server": "65535",
			"farm": 66,
			"title": "Altnagelvin Hospital Choir, Soloists and Orchestra gathering in Council Chamber of Derry Guildhall before Handel's Messiah",
			"ispublic": 1,
			"isfriend": 0,
			"isfamily": 0
		}, {
			"id": "40922956293",
			"owner": "90865052@N00",
			"secret": "a68c24694b",
			"server": "65535",
			"farm": 66,
			"title": "Altnagelvin Hospital Choir, Soloists and Orchestra gathering in Council Chamber of Derry Guildhall before Handel's Messiah",
			"ispublic": 1,
			"isfriend": 0,
			"isfamily": 0
		}, {
			"id": "47099959534",
			"owner": "90865052@N00",
			"secret": "4d21013940",
			"server": "65535",
			"farm": 66,
			"title": "Altnagelvin Hospital Choir, Soloists and Orchestra gathering in Council Chamber of Derry Guildhall before Handel's Messiah",
			"ispublic": 1,
			"isfriend": 0,
			"isfamily": 0
		}, {
			"id": "47099955824",
			"owner": "90865052@N00",
			"secret": "6fa53897e7",
			"server": "65535",
			"farm": 66,
			"title": "Catalan Fish Stew at Entrada Restaurant, Londonderry",
			"ispublic": 1,
			"isfriend": 0,
			"isfamily": 0
		}, {
			"id": "47099954734",
			"owner": "90865052@N00",
			"secret": "9245199cd1",
			"server": "65535",
			"farm": 66,
			"title": "Port and Fennel Meatballs at Entrada Restaurant, Londonderry",
			"ispublic": 1,
			"isfriend": 0,
			"isfamily": 0
		}, {
			"id": "46973192655",
			"owner": "90865052@N00",
			"secret": "0dbdd34532",
			"server": "65535",
			"farm": 66,
			"title": "Pork and Fennel Meatballs at Entrada Restaurant, Londonderry",
			"ispublic": 1,
			"isfriend": 0,
			"isfamily": 0
		}, {
			"id": "40922950353",
			"owner": "90865052@N00",
			"secret": "9a34121b2d",
			"server": "65535",
			"farm": 66,
			"title": "Pint of Maggie's Leap IPA at Entrada Restaurant, Londonderry",
			"ispublic": 1,
			"isfriend": 0,
			"isfamily": 0
		}, {
			"id": "40922949073",
			"owner": "90865052@N00",
			"secret": "52f38aeb9e",
			"server": "65535",
			"farm": 66,
			"title": "Entrada Restaurant, Londonderry",
			"ispublic": 1,
			"isfriend": 0,
			"isfamily": 0
		}, {
			"id": "46973186945",
			"owner": "90865052@N00",
			"secret": "8db9b393bb",
			"server": "65535",
			"farm": 66,
			"title": "Derry Guildhall and Peace Flame",
			"ispublic": 1,
			"isfriend": 0,
			"isfamily": 0
		}, {
			"id": "47837288962",
			"owner": "157510802@N04",
			"secret": "fca25f34e2",
			"server": "65535",
			"farm": 66,
			"title": "Find Summer Desserts Value Pack at Online Pastry School",
			"ispublic": 1,
			"isfriend": 0,
			"isfamily": 0
		}, {
			"id": "47889180001",
			"owner": "74939715@N05",
			"secret": "8cccf0b113",
			"server": "65535",
			"farm": 66,
			"title": "Buckhead, Atlanta",
			"ispublic": 1,
			"isfriend": 0,
			"isfamily": 0
		}, {
			"id": "47099854884",
			"owner": "169961152@N02",
			"secret": "4a55bb0bfb",
			"server": "65535",
			"farm": 66,
			"title": "Under the apple tree canopy bed \u2013 Modern romantic Scandinavian design Sleep Therapy woodland fairy tale",
			"ispublic": 1,
			"isfriend": 0,
			"isfamily": 0
		}, {
			"id": "46973080515",
			"owner": "153890985@N06",
			"secret": "ee018bd03e",
			"server": "65535",
			"farm": 66,
			"title": "IMG_20190519_155244",
			"ispublic": 1,
			"isfriend": 0,
			"isfamily": 0
		}, {
			"id": "46973075935",
			"owner": "153890985@N06",
			"secret": "e53ca6e447",
			"server": "65535",
			"farm": 66,
			"title": "IMG_20190518_130240",
			"ispublic": 1,
			"isfriend": 0,
			"isfamily": 0
		}, {
			"id": "40922780143",
			"owner": "153890985@N06",
			"secret": "0d8ea68f59",
			"server": "65535",
			"farm": 66,
			"title": "IMG_20190519_155100",
			"ispublic": 1,
			"isfriend": 0,
			"isfamily": 0
		}, {
			"id": "40922770393",
			"owner": "153890985@N06",
			"secret": "15b4849c0d",
			"server": "65535",
			"farm": 66,
			"title": "IMG_20190518_131329_HDR",
			"ispublic": 1,
			"isfriend": 0,
			"isfamily": 0
		}, {
			"id": "40922773013",
			"owner": "98844125@N04",
			"secret": "47e30f3d10",
			"server": "65535",
			"farm": 66,
			"title": "The apple orchard",
			"ispublic": 1,
			"isfriend": 0,
			"isfamily": 0
		}, {
			"id": "47837138962",
			"owner": "170843623@N02",
			"secret": "291e39c87f",
			"server": "65535",
			"farm": 66,
			"title": "Best Dead iPhone Repair Center in Thane",
			"ispublic": 1,
			"isfriend": 0,
			"isfamily": 0
		}, {
			"id": "46972945055",
			"owner": "32279709@N02",
			"secret": "2354ee01af",
			"server": "65535",
			"farm": 66,
			"title": "Cactus y sombras",
			"ispublic": 1,
			"isfriend": 0,
			"isfamily": 0
		}, {
			"id": "46972944475",
			"owner": "32279709@N02",
			"secret": "95458fcd8e",
			"server": "65535",
			"farm": 66,
			"title": "Cactus y sombras",
			"ispublic": 1,
			"isfriend": 0,
			"isfamily": 0
		}, {
			"id": "47099439784",
			"owner": "157190313@N07",
			"secret": "3598a4fd77",
			"server": "65535",
			"farm": 66,
			"title": "APPLE PRESENTS RAAGA PATOLA PARTY WEAR SAREE WITH KANJIVARAM SILK AVAILABLE IN WHOLESALE SURAT PRICE FROM SURAT MANUFACTURER",
			"ispublic": 1,
			"isfriend": 0,
			"isfamily": 0
		}, {
			"id": "47099336124",
			"owner": "64985182@N00",
			"secret": "b25fffe67b",
			"server": "65535",
			"farm": 66,
			"title": "Ditchley",
			"ispublic": 1,
			"isfriend": 0,
			"isfamily": 0
		}, {
			"id": "47099304054",
			"owner": "37835538@N00",
			"secret": "b10b6c49f0",
			"server": "65535",
			"farm": 66,
			"title": "Joan",
			"ispublic": 1,
			"isfriend": 0,
			"isfamily": 0
		}, {
			"id": "40922315313",
			"owner": "12739822@N03",
			"secret": "ee32ca20ce",
			"server": "0",
			"farm": 0,
			"title": "Salmon red kale cos lettuce homemade aioli-Apple Devices HD (Most Compatible)",
			"ispublic": 1,
			"isfriend": 0,
			"isfamily": 0
		}, {
			"id": "47099291514",
			"owner": "146252457@N07",
			"secret": "35645852cf",
			"server": "65535",
			"farm": 66,
			"title": "Apple Cider Vinegar.",
			"ispublic": 1,
			"isfriend": 0,
			"isfamily": 0
		}, {
			"id": "47099289954",
			"owner": "12198857@N00",
			"secret": "cb11b2b413",
			"server": "65535",
			"farm": 66,
			"title": "Grilled Pork Roast",
			"ispublic": 1,
			"isfriend": 0,
			"isfamily": 0
		}, {
			"id": "47099289994",
			"owner": "12198857@N00",
			"secret": "41faf9724a",
			"server": "65535",
			"farm": 66,
			"title": "Grilled Pork Roast",
			"ispublic": 1,
			"isfriend": 0,
			"isfamily": 0
		}, {
			"id": "40922016423",
			"owner": "30026676@N05",
			"secret": "a0314718c1",
			"server": "65535",
			"farm": 66,
			"title": "White Helleborine Orchid (Cephalanthera damasonium)",
			"ispublic": 1,
			"isfriend": 0,
			"isfamily": 0
		}, {
			"id": "40922008213",
			"owner": "30026676@N05",
			"secret": "e6878837ee",
			"server": "65535",
			"farm": 66,
			"title": "Heath Spotted Orchid (Dactylorhiza maculata)",
			"ispublic": 1,
			"isfriend": 0,
			"isfamily": 0
		}, {
			"id": "46972325535",
			"owner": "30026676@N05",
			"secret": "0a97240498",
			"server": "65535",
			"farm": 66,
			"title": "Heath Spotted Orchid (Dactylorhiza maculata)",
			"ispublic": 1,
			"isfriend": 0,
			"isfamily": 0
		}, {
			"id": "40922007303",
			"owner": "30026676@N05",
			"secret": "b9988f6842",
			"server": "65535",
			"farm": 66,
			"title": "Heath Spotted Orchid (Dactylorhiza maculata)",
			"ispublic": 1,
			"isfriend": 0,
			"isfamily": 0
		}, {
			"id": "46972325075",
			"owner": "30026676@N05",
			"secret": "a2ba6c7a23",
			"server": "65535",
			"farm": 66,
			"title": "Heath Spotted Orchid (Dactylorhiza maculata)",
			"ispublic": 1,
			"isfriend": 0,
			"isfamily": 0
		}, {
			"id": "40922006443",
			"owner": "30026676@N05",
			"secret": "c827a9c8ab",
			"server": "65535",
			"farm": 66,
			"title": "Heath Spotted Orchid (Dactylorhiza maculata)",
			"ispublic": 1,
			"isfriend": 0,
			"isfamily": 0
		}, {
			"id": "47099033994",
			"owner": "30026676@N05",
			"secret": "0d2d934a7c",
			"server": "65535",
			"farm": 66,
			"title": "Heath Spotted Orchid (Dactylorhiza maculata)",
			"ispublic": 1,
			"isfriend": 0,
			"isfamily": 0
		}, {
			"id": "40922005583",
			"owner": "30026676@N05",
			"secret": "87191e8aa1",
			"server": "65535",
			"farm": 66,
			"title": "Heath Spotted Orchid (Dactylorhiza maculata)",
			"ispublic": 1,
			"isfriend": 0,
			"isfamily": 0
		}, {
			"id": "47099033514",
			"owner": "30026676@N05",
			"secret": "0c3838e293",
			"server": "65535",
			"farm": 66,
			"title": "Heath Spotted Orchid (Dactylorhiza maculata)",
			"ispublic": 1,
			"isfriend": 0,
			"isfamily": 0
		}, {
			"id": "40922005293",
			"owner": "30026676@N05",
			"secret": "e713d8f61d",
			"server": "65535",
			"farm": 66,
			"title": "Heath Spotted Orchid (Dactylorhiza maculata)",
			"ispublic": 1,
			"isfriend": 0,
			"isfamily": 0
		}, {
			"id": "47099032954",
			"owner": "30026676@N05",
			"secret": "fc005890eb",
			"server": "65535",
			"farm": 66,
			"title": "Bird's-nest Orchid (Neottia nidus-avis)",
			"ispublic": 1,
			"isfriend": 0,
			"isfamily": 0
		}, {
			"id": "40922005003",
			"owner": "30026676@N05",
			"secret": "1acbf9a443",
			"server": "65535",
			"farm": 66,
			"title": "Bird's-nest Orchid (Neottia nidus-avis)",
			"ispublic": 1,
			"isfriend": 0,
			"isfamily": 0
		}, {
			"id": "47099032704",
			"owner": "30026676@N05",
			"secret": "578a651a7f",
			"server": "65535",
			"farm": 66,
			"title": "Bird's-nest Orchid (Neottia nidus-avis)",
			"ispublic": 1,
			"isfriend": 0,
			"isfamily": 0
		}, {
			"id": "40922004833",
			"owner": "30026676@N05",
			"secret": "803a704507",
			"server": "65535",
			"farm": 66,
			"title": "Bird's-nest Orchid (Neottia nidus-avis)",
			"ispublic": 1,
			"isfriend": 0,
			"isfamily": 0
		}, {
			"id": "47099032484",
			"owner": "30026676@N05",
			"secret": "e24a6f367d",
			"server": "65535",
			"farm": 66,
			"title": "Bird's-nest Orchid (Neottia nidus-avis)",
			"ispublic": 1,
			"isfriend": 0,
			"isfamily": 0
		}, {
			"id": "40922004583",
			"owner": "30026676@N05",
			"secret": "f643bbdcba",
			"server": "65535",
			"farm": 66,
			"title": "Bird's-nest Orchid (Neottia nidus-avis)",
			"ispublic": 1,
			"isfriend": 0,
			"isfamily": 0
		}, {
			"id": "47099032244",
			"owner": "30026676@N05",
			"secret": "7555faf45f",
			"server": "65535",
			"farm": 66,
			"title": "Bird's-nest Orchid (Neottia nidus-avis)",
			"ispublic": 1,
			"isfriend": 0,
			"isfamily": 0
		}, {
			"id": "40922004343",
			"owner": "30026676@N05",
			"secret": "b0894f1ea3",
			"server": "65535",
			"farm": 66,
			"title": "Bird's-nest Orchid (Neottia nidus-avis)",
			"ispublic": 1,
			"isfriend": 0,
			"isfamily": 0
		}, {
			"id": "47099031974",
			"owner": "30026676@N05",
			"secret": "7cd67889ec",
			"server": "65535",
			"farm": 66,
			"title": "Bird's-nest Orchid (Neottia nidus-avis)",
			"ispublic": 1,
			"isfriend": 0,
			"isfamily": 0
		}, {
			"id": "47836436112",
			"owner": "30026676@N05",
			"secret": "1bf0859a07",
			"server": "65535",
			"farm": 66,
			"title": "Heath Spotted Orchid (Dactylorhiza maculata)",
			"ispublic": 1,
			"isfriend": 0,
			"isfamily": 0
		}, {
			"id": "47099031674",
			"owner": "30026676@N05",
			"secret": "795f6d98f2",
			"server": "65535",
			"farm": 66,
			"title": "Heath Spotted Orchid (Dactylorhiza maculata)",
			"ispublic": 1,
			"isfriend": 0,
			"isfamily": 0
		}, {
			"id": "47836435362",
			"owner": "30026676@N05",
			"secret": "60de05ea7a",
			"server": "65535",
			"farm": 66,
			"title": "Heath Spotted Orchid (Dactylorhiza maculata)",
			"ispublic": 1,
			"isfriend": 0,
			"isfamily": 0
		}, {
			"id": "47099031304",
			"owner": "30026676@N05",
			"secret": "c10193f921",
			"server": "65535",
			"farm": 66,
			"title": "Heath Spotted Orchid (Dactylorhiza maculata)",
			"ispublic": 1,
			"isfriend": 0,
			"isfamily": 0
		}, {
			"id": "47836434812",
			"owner": "30026676@N05",
			"secret": "346807a441",
			"server": "65535",
			"farm": 66,
			"title": "Heath Spotted Orchid (Dactylorhiza maculata)",
			"ispublic": 1,
			"isfriend": 0,
			"isfamily": 0
		}, {
			"id": "40922003493",
			"owner": "30026676@N05",
			"secret": "8943ecc8ac",
			"server": "65535",
			"farm": 66,
			"title": "Heath Spotted Orchid (Dactylorhiza maculata)",
			"ispublic": 1,
			"isfriend": 0,
			"isfamily": 0
		}, {
			"id": "46972317715",
			"owner": "30026676@N05",
			"secret": "1668a8fb89",
			"server": "65535",
			"farm": 66,
			"title": "Fly Orchid (Ophrys insectifera)",
			"ispublic": 1,
			"isfriend": 0,
			"isfamily": 0
		}, {
			"id": "46972317355",
			"owner": "30026676@N05",
			"secret": "ec537db354",
			"server": "65535",
			"farm": 66,
			"title": "Wood Cauliflower (Sparassis crispa)",
			"ispublic": 1,
			"isfriend": 0,
			"isfamily": 0
		}, {
			"id": "46972316865",
			"owner": "30026676@N05",
			"secret": "775c477a6f",
			"server": "65535",
			"farm": 66,
			"title": "Wood Cauliflower (Sparassis crispa)",
			"ispublic": 1,
			"isfriend": 0,
			"isfamily": 0
		}, {
			"id": "46972316375",
			"owner": "30026676@N05",
			"secret": "5ddb702036",
			"server": "65535",
			"farm": 66,
			"title": "Greater Butterfly Orchid (Platanthera chlorantha)",
			"ispublic": 1,
			"isfriend": 0,
			"isfamily": 0
		}, {
			"id": "46972315775",
			"owner": "30026676@N05",
			"secret": "43c765538e",
			"server": "65535",
			"farm": 66,
			"title": "Arum Rust (Puccinia sessilis) growing on Lords-and-ladies (Arum maculatum)",
			"ispublic": 1,
			"isfriend": 0,
			"isfamily": 0
		}, {
			"id": "46972315605",
			"owner": "30026676@N05",
			"secret": "d0d5e9a652",
			"server": "65535",
			"farm": 66,
			"title": "Arum Rust (Puccinia sessilis) growing on Lords-and-ladies (Arum maculatum)",
			"ispublic": 1,
			"isfriend": 0,
			"isfamily": 0
		}, {
			"id": "46972314395",
			"owner": "30026676@N05",
			"secret": "6f5bff0b65",
			"server": "65535",
			"farm": 66,
			"title": "Common Twayblade Orchid Listera ovata)",
			"ispublic": 1,
			"isfriend": 0,
			"isfamily": 0
		}, {
			"id": "47888574681",
			"owner": "171322424@N04",
			"secret": "377f4fc53b",
			"server": "65535",
			"farm": 66,
			"title": "Pretty Dear Parents Tag You're It Love Teacher Shirt",
			"ispublic": 1,
			"isfriend": 0,
			"isfamily": 0
		}, {
			"id": "40922116563",
			"owner": "158033036@N08",
			"secret": "2d7e48279e",
			"server": "65535",
			"farm": 66,
			"title": "Apple background",
			"ispublic": 1,
			"isfriend": 0,
			"isfamily": 0
		}, {
			"id": "46972392575",
			"owner": "29385487@N03",
			"secret": "1517a8a484",
			"server": "65535",
			"farm": 66,
			"title": "apple",
			"ispublic": 1,
			"isfriend": 0,
			"isfamily": 0
		}, {
			"id": "46972335935",
			"owner": "151467200@N07",
			"secret": "5c0831a63f",
			"server": "65535",
			"farm": 66,
			"title": "paul_cezanne_social",
			"ispublic": 1,
			"isfriend": 0,
			"isfamily": 0
		}]
	},
	"stat": "ok"
}
